[gd_scene load_steps=2 format=2]

[ext_resource path="res://assets/textures/bg.png" type="Texture" id=1]

[node name="root" type="Control"]

anchor_left = 0.0
anchor_top = 0.0
anchor_right = 0.0
anchor_bottom = 0.0
margin_right = 360.0
margin_bottom = 740.0
rect_pivot_offset = Vector2( 0, 0 )
rect_clip_content = false
mouse_filter = 0
mouse_default_cursor_shape = 0
size_flags_horizontal = 1
size_flags_vertical = 1
_sections_unfolded = [ "Rect" ]

[node name="bg" type="TextureRect" parent="." index="0"]

modulate = Color( 0.425781, 0.256134, 0.256134, 1 )
anchor_left = 0.0
anchor_top = 0.0
anchor_right = 1.0
anchor_bottom = 1.0
rect_pivot_offset = Vector2( 0, 0 )
rect_clip_content = false
mouse_filter = 1
mouse_default_cursor_shape = 0
size_flags_horizontal = 3
size_flags_vertical = 3
texture = ExtResource( 1 )
expand = true
stretch_mode = 2
_sections_unfolded = [ "Material", "Visibility" ]


